[gd_scene load_steps=5 format=2]

[ext_resource path="res://icon.png" type="Texture" id=1]
[ext_resource path="res://Player.gd" type="Script" id=2]

[sub_resource type="RectangleShape2D" id=1]
extents = Vector2( 32, 32 )

[sub_resource type="CircleShape2D" id=2]

[node name="KinematicBody2D" type="KinematicBody2D"]
collision_layer = 3
script = ExtResource( 2 )

[node name="Sprite2D" type="Sprite" parent="."]
texture = ExtResource( 1 )

[node name="CollisionShape2D" type="CollisionShape2D" parent="."]
shape = SubResource( 1 )

[node name="ID" type="Label" parent="."]
margin_left = -35.0
margin_top = -50.0
margin_right = 35.0
margin_bottom = -30.0
grow_horizontal = 2
size_flags_horizontal = 3
text = "Player X"
align = 1

[node name="Area2D" type="Area2D" parent="."]
show_behind_parent = true
collision_layer = 0
collision_mask = 2

[node name="CollisionShape2D2" type="CollisionShape2D" parent="Area2D"]
self_modulate = Color( 1, 0, 0, 0.490196 )
scale = Vector2( 7, 7 )
shape = SubResource( 2 )
